mtllib ./pb39988.mtl
g pb-Cube-341764
v 5.266 -0.03683871 4.095
v 4.266 -0.03683871 4.095
v 5.266 -0.03683871 6.997259
v 4.266 -0.03683871 6.997259
v 4.290079 0.7865529 6.250217
v 4.516 0.7865529 6.997259
v 4.266 0.7865529 6.997259
v 4.266 0.7865529 6.271694
v 5.016 0.7865529 6.997259
v 5.152708 0.7865529 6.250217
v 5.266 0.7865529 6.997259
v 5.266 0.7865529 6.271694
v 4.290079 0.7865529 4.812468
v 4.266 0.7865529 4.820565
v 4.266 0.7865529 4.095
v 4.516 0.7865529 4.095
v 5.266 0.7865529 4.820565
v 5.152708 0.7865529 4.812468
v 5.266 0.7865529 4.095
v 5.016 0.7865529 4.095
v 5.266 -0.03683871 6.997259
v 4.266 -0.03683871 6.997259
v 4.766 0.7865529 6.997259
v 4.516 0.7865529 6.997259
v 4.266 0.7865529 6.997259
v 5.016 0.7865529 6.997259
v 5.266 0.7865529 6.997259
v 4.266 -0.03683871 6.997259
v 4.266 -0.03683871 4.095
v 4.266 0.7865529 5.54613
v 4.266 0.7865529 6.997259
v 4.266 -0.03683871 6.997259
v 4.266 0.7865529 6.271694
v 4.266 0.7865529 4.820565
v 4.266 0.7865529 4.095
v 4.266 -0.03683871 6.997259
v 4.266 0.7865529 5.54613
v 4.266 0.7865529 4.820565
v 4.266 0.7865529 5.54613
v 4.266 0.7865529 6.271694
v 4.266 0.7865529 4.820565
v 4.266 0.7865529 4.820565
v 5.266 -0.03683871 4.095
v 5.266 -0.03683871 6.997259
v 5.266 0.7865529 5.54613
v 5.266 -0.03683871 6.997259
v 5.266 0.7865529 6.997259
v 5.266 0.7865529 6.271694
v 5.266 0.7865529 4.820565
v 5.266 0.7865529 4.095
v 5.266 0.7865529 5.54613
v 5.266 -0.03683871 6.997259
v 5.266 0.7865529 4.820565
v 5.266 0.7865529 4.820565
v 5.266 0.7865529 6.271694
v 5.266 0.7865529 5.54613
v 5.266 0.7865529 4.820565
v 4.266 -0.03683871 4.095
v 5.266 -0.03683871 4.095
v 4.766 0.7865529 4.095
v 4.516 0.7865529 4.095
v 4.266 0.7865529 4.095
v 5.016 0.7865529 4.095
v 5.266 0.7865529 4.095
v 4.477428 0.7865529 5.903176
v 4.505736 0.7865529 6.250217
v 4.290079 0.7865529 5.89078
v 4.721394 0.7865529 6.250217
v 4.721394 0.7865529 6.0341
v 4.290079 0.7865529 5.531343
v 4.413818 0.7865529 5.531343
v 4.721394 0.5574481 6.013388
v 4.505736 0.5574481 5.89078
v 4.721394 0.5574481 5.531343
v 4.413818 0.5574481 5.531343
v 4.97604 0.7865529 5.89078
v 4.937051 0.7865529 6.250217
v 4.937051 0.5574481 5.89078
v 4.721394 0.5574481 6.013388
v 4.721394 0.5574481 5.531343
v 5.066813 0.5574481 5.531343
v 5.152708 0.7865529 5.89078
v 5.152708 0.7865529 5.531343
v 5.066813 0.7865529 5.531343
v 4.505736 0.7865529 5.212395
v 4.290079 0.7865529 5.171905
v 4.505736 0.7865529 4.812468
v 4.721394 0.7865529 4.812468
v 4.721394 0.7865529 5.105995
v 4.413818 0.5574481 5.531343
v 4.505736 0.5574481 5.171905
v 4.721394 0.5574481 5.531343
v 4.721394 0.5574481 5.061585
v 4.937051 0.7865529 5.171905
v 5.152708 0.7865529 5.171905
v 4.937051 0.5574481 5.171905
v 5.066813 0.5574481 5.531343
v 4.721394 0.5574481 5.531343
v 4.721394 0.5574481 5.061585
v 4.937051 0.7865529 4.812468
v 4.766 0.7865529 6.997259
v 4.266 0.7865529 5.54613
v 5.266 0.7865529 5.54613
v 4.766 0.7865529 4.095
v 4.937051 0.7865529 5.171905
v 5.066813 0.7865529 5.531343
v 4.937051 0.5574481 5.171905
v 5.066813 0.5574481 5.531343
v 4.721394 0.7865529 5.105995
v 4.937051 0.7865529 5.171905
v 4.721394 0.5574481 5.061585
v 4.937051 0.5574481 5.171905
v 4.97604 0.7865529 5.89078
v 4.721394 0.7865529 6.0341
v 4.937051 0.5574481 5.89078
v 4.721394 0.5574481 6.013388
v 5.066813 0.7865529 5.531343
v 4.97604 0.7865529 5.89078
v 5.066813 0.5574481 5.531343
v 4.937051 0.5574481 5.89078
v 4.413818 0.7865529 5.531343
v 4.505736 0.7865529 5.212395
v 4.413818 0.5574481 5.531343
v 4.505736 0.5574481 5.171905
v 4.505736 0.7865529 5.212395
v 4.721394 0.7865529 5.105995
v 4.505736 0.5574481 5.171905
v 4.721394 0.5574481 5.061585
v 4.721394 0.7865529 6.0341
v 4.477428 0.7865529 5.903176
v 4.721394 0.5574481 6.013388
v 4.505736 0.5574481 5.89078
v 4.477428 0.7865529 5.903176
v 4.413818 0.7865529 5.531343
v 4.505736 0.5574481 5.89078
v 4.413818 0.5574481 5.531343

vn 0 -0.9999999 0
vn 0 -0.9999999 0
vn 0 -0.9999999 0
vn 0 -0.9999999 0
vn 0 0.9999999 0
vn 0 1 0
vn 0 0.9999999 0
vn 0 1 0
vn 0 1 0
vn 0 1 0
vn 0 1 0
vn 0 1 0
vn 0 1 0
vn 0 1 0
vn 0 1 0
vn 0 1 0
vn 0 1 0
vn 0 1 0
vn 0 1 0
vn 0 1 0
vn -7.947286E-08 -2.412973E-08 1
vn 7.947286E-08 -2.412973E-08 1
vn 0 0 1
vn 2.384186E-07 -7.238918E-08 1
vn 4.768372E-07 -1.447784E-07 1
vn -2.384186E-07 -7.238918E-08 1
vn -4.768372E-07 -1.447784E-07 1
vn -0.9999999 0 0
vn -0.9999999 0 0
vn -1 0 0
vn -1 0 0
vn -0.9999999 0 0
vn -0.9999999 0 0
vn -0.9999999 0 0
vn -1 0 0
vn -0.9999999 0 0
vn -1 0 0
vn -0.9999999 0 0
vn -1 0 0
vn -0.9999999 0 0
vn -0.9999999 0 0
vn -0.9999999 0 0
vn 0.9999999 0 0
vn 0.9999999 0 0
vn 1 0 0
vn 0.9999999 0 0
vn 1 0 0
vn 1 0 0
vn 0.9999999 0 0
vn 1 0 0
vn 1 0 0
vn 0.9999999 0 0
vn 0.9999999 0 0
vn 0.9999999 0 0
vn 1 0 0
vn 1 0 0
vn 0.9999999 0 0
vn 0 0 -1
vn 0 0 -1
vn 0 0 -1
vn 0 0 -1
vn 0 0 -1
vn 0 0 -1
vn 0 0 -1
vn 0 1 0
vn 0 1 0
vn 0 1 0
vn 0 1 0
vn 0 1 0
vn 0 1 0
vn 0 1 0
vn 0 0.9999999 0
vn 0 1 0
vn 0 1 0
vn 0 1 0
vn 0 1 0
vn 0 1 0
vn 0 1 0
vn 0 1 0
vn 0 1 0
vn 0 0.9999999 0
vn 0 1 0
vn 0 1 0
vn 0 0.9999999 0
vn 0 1 0
vn 0 1 0
vn 0 1 0
vn 0 1 0
vn 0 1 0
vn 0 1 0
vn 0 1 0
vn 0 1 0
vn 0 1 0
vn 0 1 0
vn 0 1 0
vn 0 1 0
vn 0 0.9999999 0
vn 0 1 0
vn 0 1 0
vn 0 1 0
vn 0 1 0
vn 0 1 0
vn 0 0.9999999 0
vn 0 1 0
vn -0.9405826 0 0.3395649
vn -0.9405826 0 0.3395649
vn -0.9405826 0 0.3395649
vn -0.9405826 0 0.3395649
vn -0.2873824 -0.1822707 0.9403131
vn -0.3767206 -0.08936105 0.9220065
vn -0.3767206 -0.08936105 0.9220065
vn -0.455422 0 0.8902758
vn -0.4887727 0.08317938 -0.8684368
vn -0.4905878 0.08096134 -0.8676225
vn -0.4905878 0.08096134 -0.8676225
vn -0.4927212 0.07834677 -0.8666531
vn -0.9695596 0 -0.2448556
vn -0.9528764 0.0810803 -0.2923228
vn -0.9528764 0.0810803 -0.2923228
vn -0.9287596 0.1580564 -0.3352966
vn 0.9608926 0 0.2769212
vn 0.9649303 -0.02310631 0.2614872
vn 0.9649303 -0.02310631 0.2614872
vn 0.9678954 -0.04374376 0.2475175
vn 0.4369993 -0.1565361 0.8857359
vn 0.4429437 -0.1633372 0.8815451
vn 0.4429437 -0.1633372 0.8815451
vn 0.4487883 -0.1700577 0.877308
vn 0.4713681 0.07940461 -0.8783547
vn 0.4809202 0.0927057 -0.8718494
vn 0.4809202 0.0927057 -0.8718494
vn 0.4913775 0.107478 -0.8642896
vn 0.9773414 0.1298073 -0.1671942
vn 0.9759957 0.06591298 -0.2075762
vn 0.9759957 0.06591298 -0.2075762
vn 0.9688228 0 -0.2477547

vt 1 0
vt 0 0
vt 1 2.902259
vt 0 2.902259
vt 0.9759208 2.155218
vt 0.75 2.902259
vt 1 2.90226
vt 1 2.176695
vt 0.25 2.902259
vt 0.1132916 2.155218
vt 0 2.90226
vt 0 2.176695
vt 0.9759208 0.7174678
vt 1 0.7255648
vt 1 0
vt 0.75 0
vt 0 0.7255648
vt 0.1132916 0.7174678
vt 0 0
vt 0.25 0
vt 1 0
vt 0 0
vt 0.5 0.8233916
vt 0.25 0.8233916
vt 0 0.8233916
vt 0.75 0.8233916
vt 1 0.8233916
vt 2.902259 0
vt 0 0
vt 1.45113 0.8233916
vt 2.90226 0.8233916
vt 2.902259 0
vt 2.176695 0.8233916
vt 0.7255648 0.8233916
vt 0 0.8233916
vt 2.902259 0
vt 1.45113 0.8233916
vt 0.7255648 0.8233916
vt 1.45113 0.8233916
vt 2.176695 0.8233916
vt 0.7255648 0.8233916
vt 0.7255648 0.8233916
vt 2.90226 0
vt 1.192093E-07 0
vt 1.45113 0.8233916
vt 1.192093E-07 0
vt 0 0.8233916
vt 0.725565 0.8233916
vt 2.176695 0.8233916
vt 2.90226 0.8233916
vt 1.45113 0.8233916
vt 1.192093E-07 0
vt 2.176695 0.8233916
vt 2.176695 0.8233916
vt 0.725565 0.8233916
vt 1.45113 0.8233916
vt 2.176695 0.8233916
vt 1 0
vt 0 0
vt 0.5 0.8233916
vt 0.75 0.8233916
vt 1 0.8233916
vt 0.25 0.8233916
vt 0 0.8233916
vt 0.7885719 1.808176
vt 0.7602635 2.155218
vt 0.9759208 1.79578
vt 0.5446062 2.155218
vt 0.5446062 1.9391
vt 0.9759208 1.436343
vt 0.8521816 1.436343
vt 0 0.4820458
vt 0.2156573 0.3594374
vt 0 5.960464E-08
vt 0.3075753 -2.980232E-08
vt 0.2899598 1.79578
vt 0.3289489 2.155218
vt 0.1297625 0.3594374
vt 0.3454198 0.4820458
vt 0.3454198 5.960464E-08
vt -1.490116E-08 -2.980232E-08
vt 0.1132916 1.79578
vt 0.1132916 1.436343
vt 0.1991864 1.436343
vt 0.7602635 1.117395
vt 0.9759208 1.076905
vt 0.7602635 0.7174678
vt 0.5446062 0.7174678
vt 0.5446062 1.010995
vt 0.3075753 0.4697573
vt 0.2156573 0.1103198
vt 0 0.4697573
vt 0 0
vt 0.3289489 1.076905
vt 0.1132916 1.076905
vt 0.1297625 0.1103198
vt -1.490116E-08 0.4697573
vt 0.3454198 0.4697573
vt 0.3454198 0
vt 0.3289489 0.7174678
vt 0.5 2.902259
vt 1 1.45113
vt 0 1.45113
vt 0.5 0
vt 1.490116E-08 0.2291048
vt 0.3821434 0.2291048
vt 1.490116E-08 0
vt 0.3821434 0
vt 0.01297998 0.233008
vt 0.2384844 0.233008
vt 0 0
vt 0.2384844 0.007741153
vt 5.960464E-08 0.2299014
vt 0.2922077 0.2299014
vt 0.03397733 0
vt 0.2820494 8.928776E-05
vt 0 0.2291048
vt 0.3707224 0.2291048
vt 0 0
vt 0.3802691 0
vt 0 0.2291048
vt 0.3319286 0.2291048
vt 0 0
vt 0.3708348 0
vt 0 0.2325146
vt 0.2404765 0.2325146
vt 0.01791477 0.0005502701
vt 0.2601258 0
vt 0 0.2303116
vt 0.276876 0.2303116
vt 0.009793624 0.0004811883
vt 0.257794 5.960464E-08
vt 0 0.2310597
vt 0.3772349 0.2310597
vt 0.007444978 0
vt 0.3772349 0.003893316

usemtl Default_Prototype
usemap Default_Prototype
f 2/2/2 1/1/1 3/3/3
f 4/4/4 2/2/2 3/3/3
f 6/6/6 5/5/5 7/7/7
f 5/5/5 8/8/8 7/7/7
f 10/10/10 9/9/9 11/11/11
f 12/12/12 10/10/10 11/11/11
f 14/14/14 13/13/13 15/15/15
f 13/13/13 16/16/16 15/15/15
f 18/18/18 17/17/17 19/19/19
f 20/20/20 18/18/18 19/19/19
f 22/22/22 21/21/21 23/23/23
f 22/22/22 23/23/23 24/24/24
f 25/25/25 22/22/22 24/24/24
f 23/23/23 21/21/21 26/26/26
f 21/21/21 27/27/27 26/26/26
f 29/29/29 28/28/28 30/30/30
f 32/32/32 31/31/31 33/33/33
f 29/29/29 30/30/30 34/34/34
f 35/35/35 29/29/29 34/34/34
f 37/37/37 36/36/36 38/38/38
f 40/40/40 39/39/39 41/41/41
f 32/32/32 33/33/33 42/42/42
f 44/44/44 43/43/43 45/45/45
f 47/47/47 46/46/46 48/48/48
f 45/45/45 43/43/43 49/49/49
f 43/43/43 50/50/50 49/49/49
f 52/52/52 51/51/51 53/53/53
f 48/48/48 46/46/46 54/54/54
f 56/56/56 55/55/55 57/57/57
f 59/59/59 58/58/58 60/60/60
f 60/60/60 58/58/58 61/61/61
f 58/58/58 62/62/62 61/61/61
f 59/59/59 60/60/60 63/63/63
f 64/64/64 59/59/59 63/63/63
f 66/66/66 65/65/65 5/5/5
f 65/65/65 67/67/67 5/5/5
f 65/65/65 66/66/66 68/68/68
f 69/69/69 65/65/65 68/68/68
f 67/67/67 65/65/65 70/70/70
f 65/65/65 71/71/71 70/70/70
f 73/73/73 72/72/72 74/74/74
f 75/75/75 73/73/73 74/74/74
f 77/77/77 76/76/76 68/68/68
f 76/76/76 69/69/69 68/68/68
f 79/79/79 78/78/78 80/80/80
f 78/78/78 81/81/81 80/80/80
f 76/76/76 77/77/77 10/10/10
f 82/82/82 76/76/76 10/10/10
f 76/76/76 82/82/82 83/83/83
f 84/84/84 76/76/76 83/83/83
f 86/86/86 85/85/85 13/13/13
f 85/85/85 87/87/87 13/13/13
f 85/85/85 86/86/86 70/70/70
f 71/71/71 85/85/85 70/70/70
f 87/87/87 85/85/85 88/88/88
f 85/85/85 89/89/89 88/88/88
f 91/91/91 90/90/90 92/92/92
f 93/93/93 91/91/91 92/92/92
f 95/95/95 94/94/94 83/83/83
f 94/94/94 84/84/84 83/83/83
f 97/97/97 96/96/96 98/98/98
f 96/96/96 99/99/99 98/98/98
f 94/94/94 95/95/95 18/18/18
f 100/100/100 94/94/94 18/18/18
f 94/94/94 100/100/100 88/88/88
f 89/89/89 94/94/94 88/88/88
f 101/101/101 68/68/68 66/66/66
f 6/6/6 101/101/101 66/66/66
f 5/5/5 6/6/6 66/66/66
f 5/5/5 102/102/102 8/8/8
f 102/102/102 5/5/5 67/67/67
f 70/70/70 102/102/102 67/67/67
f 68/68/68 101/101/101 77/77/77
f 9/9/9 10/10/10 77/77/77
f 101/101/101 9/9/9 77/77/77
f 103/103/103 10/10/10 12/12/12
f 103/103/103 83/83/83 82/82/82
f 10/10/10 103/103/103 82/82/82
f 102/102/102 13/13/13 14/14/14
f 102/102/102 70/70/70 86/86/86
f 13/13/13 102/102/102 86/86/86
f 88/88/88 104/104/104 87/87/87
f 16/16/16 13/13/13 87/87/87
f 104/104/104 16/16/16 87/87/87
f 18/18/18 103/103/103 17/17/17
f 103/103/103 18/18/18 95/95/95
f 83/83/83 103/103/103 95/95/95
f 104/104/104 88/88/88 100/100/100
f 20/20/20 104/104/104 100/100/100
f 18/18/18 20/20/20 100/100/100
f 106/106/106 105/105/105 107/107/107
f 108/108/108 106/106/106 107/107/107
f 110/110/110 109/109/109 111/111/111
f 112/112/112 110/110/110 111/111/111
f 114/114/114 113/113/113 115/115/115
f 116/116/116 114/114/114 115/115/115
f 118/118/118 117/117/117 119/119/119
f 120/120/120 118/118/118 119/119/119
f 122/122/122 121/121/121 123/123/123
f 124/124/124 122/122/122 123/123/123
f 126/126/126 125/125/125 127/127/127
f 128/128/128 126/126/126 127/127/127
f 130/130/130 129/129/129 131/131/131
f 132/132/132 130/130/130 131/131/131
f 134/134/134 133/133/133 135/135/135
f 136/136/136 134/134/134 135/135/135
